HW-8: ML Exercise on Titanic Dataset
…
Calculate the survival rate of each boat(treat 0 as one boat too):

boat_surv_rate<-all %>% 
  filter(!is.na(all$survived)) %>% 
  group_by(boat,survived) %>% 
  summarise(Percentage=n()) %>% 
  group_by(boat) %>% 
  mutate(Percentage=Percentage/sum(Percentage)*100)
boat_surv_rate <- boat_surv_rate[boat_surv_rate$survived==1,]
boat_surv_rate[with(boat_surv_rate,order(Percentage)),]

## # A tibble: 27 x 3
## # Groups:   boat [27]
##      boat survived Percentage
##    <fctr>   <fctr>      <dbl>
##  1      0        1   2.401372
##  2      A        1  60.000000
##  3      B        1  83.333333
##  4      D        1  93.750000
##  5     12        1  94.736842
##  6     14        1  96.551724
##  7      1        1 100.000000
##  8     10        1 100.000000
##  9     11        1 100.000000
## 10     13        1 100.000000
## # ... with 17 more rows
…
